<?xml version="1.0" encoding="UTF-8"?>
<svg width="225px" height="300px" viewBox="0 0 225 300" version="1.1" xmlns="http://www.w3.org/2000/svg" xmlns:xlink="http://www.w3.org/1999/xlink">
    <!-- Generator: Sketch 58 (84663) - https://sketch.com -->
    <title>No Image Potrait</title>
    <desc>Created with Sketch.</desc>
    <defs>
        <rect id="path-1" x="0" y="0" width="126.662933" height="71.838678" rx="16.4145078"></rect>
        <rect id="path-3" x="0" y="0" width="126.662933" height="71.838678" rx="16.4145078"></rect>
        <rect id="path-5" x="0" y="0" width="126.662933" height="71.838678" rx="16.4145078"></rect>
        <rect id="path-7" x="0" y="0" width="126.662933" height="71.838678" rx="16.4145078"></rect>
        <rect id="path-9" x="0" y="0" width="126.662933" height="71.838678" rx="16.4145078"></rect>
    </defs>
    <g id="Guideline" stroke="none" stroke-width="1" fill="none" fill-rule="evenodd">
        <g id="Banner-State" transform="translate(-820.000000, -922.000000)">
            <g id="Image/Placeholder-Image---No-Image-Square-Potrait" transform="translate(820.000000, 922.000000)">
                <g id="Placeholder-Image" fill="#F3F3F3">
                    <rect id="Rectangle-3" x="0" y="0" width="225" height="300" rx="2"></rect>
                </g>
                <g id="nopicture" transform="translate(38.000000, 105.000000)">
                    <g>
                        <g id="Group-Copy" stroke="#51BDE9" stroke-width="1.55440415">
                            <path d="M7.87704806,0 L142.122952,0 C146.473326,0 150,3.52667453 150,7.87704806 L150,81.8188981 C150,86.1692716 146.473326,89.6959459 142.122952,89.6959459 L7.87704806,89.6959459 C3.52667453,89.6959459 0,86.1692716 0,81.8188981 L0,7.87704806 C0,3.52667453 3.52667453,0 7.87704806,0 Z" id="Rectangle"></path>
                        </g>
                        <g id="Oval-+-Oval-Copy-7-Mask" transform="translate(11.655405, 9.121622)">
                            <g id="Mask" fill="#BEE6F6" fill-rule="nonzero">
                                <rect id="path-1" x="0" y="0" width="126.662933" height="71.838678" rx="16.4145078"></rect>
                            </g>
                            <g id="Combined-Shape-Copy-Clipped">
                                <mask id="mask-2" fill="white">
                                    <use xlink:href="#path-1"></use>
                                </mask>
                                <g id="path-1"></g>
                                <path d="M37.7199546,6.61672034 C42.7712322,6.61672034 47.1207973,7.9002522 49.079187,9.745545 C49.8053495,9.68938277 50.5541666,9.65995059 51.3190743,9.65995059 C58.2037784,9.65995059 63.7849343,12.0443267 63.7849343,14.9856036 L6.61685052,14.9852182 C7.3600198,12.7855495 9.6726678,11.1815657 12.4104818,11.1815657 C14.3888093,11.1815657 16.1451398,12.0190728 17.2477283,13.3136592 C18.0430063,11.191481 20.3123102,9.65995059 22.9875749,9.65995059 C24.0270446,9.65995059 25.0052265,9.89116551 25.8594926,10.2984112 C27.480549,8.16177801 32.177907,6.61672034 37.7199546,6.61672034 Z" id="Combined-Shape-Copy" fill="#FFFFFF" fill-rule="nonzero" mask="url(#mask-2)"></path>
                            </g>
                            <g id="Oval-Clipped">
                                <mask id="mask-4" fill="white">
                                    <use xlink:href="#path-3"></use>
                                </mask>
                                <g id="path-1"></g>
                                <path d="M19.0722307,91.4114975 C32.2157569,91.4114975 42.8706902,81.1927429 42.8706902,68.5872704 C42.8706902,55.981798 32.2157569,35.919339 19.0722307,35.919339 C5.92870444,35.919339 -4.72622882,55.981798 -4.72622882,68.5872704 C-4.72622882,81.1927429 5.92870444,91.4114975 19.0722307,91.4114975 Z" id="Oval" fill="#A0DAA4" fill-rule="nonzero" mask="url(#mask-4)"></path>
                            </g>
                            <g id="Oval-Copy-7-Clipped">
                                <mask id="mask-6" fill="white">
                                    <use xlink:href="#path-5"></use>
                                </mask>
                                <g id="path-1"></g>
                                <path d="M51.5590166,98.2587654 C64.7025431,98.2587654 75.3574764,88.0400108 75.3574764,75.4345383 C75.3574764,62.8290659 64.7025431,42.7666071 51.5590166,42.7666071 C38.4154904,42.7666071 27.7605572,62.8290659 27.7605572,75.4345383 C27.7605572,88.0400108 38.4154904,98.2587654 51.5590166,98.2587654 Z" id="Oval-Copy-7" fill="#A0DAA4" fill-rule="nonzero" mask="url(#mask-6)"></path>
                            </g>
                            <g id="Oval-Clipped">
                                <mask id="mask-8" fill="white">
                                    <use xlink:href="#path-7"></use>
                                </mask>
                                <g id="path-1"></g>
                                <ellipse id="Oval" fill="#FAE39D" fill-rule="nonzero" mask="url(#mask-8)" cx="112.096143" cy="31.8271165" rx="10.9548464" ry="11.0317097"></ellipse>
                            </g>
                            <g id="Path-8-Clipped">
                                <mask id="mask-10" fill="white">
                                    <use xlink:href="#path-9"></use>
                                </mask>
                                <g id="path-1"></g>
                                <path d="M-1.89049153,64.3728922 C7.38228274,57.3769698 13.1579386,53.8790088 15.436476,53.8790088 C18.8542822,53.8790088 30.7613641,59.1259505 48.5506059,59.1259505 C66.3398478,59.1259505 88.2991875,53.8790088 92.4007971,59.1259505 C95.1352034,62.6239115 107.501161,60.8749312 129.498669,53.8790088 L129.498669,71.838678 L-1.89049153,71.838678 L-1.89049153,64.3728922 Z" id="Path-8" fill="#51BDE9" fill-rule="nonzero" mask="url(#mask-10)"></path>
                            </g>
                        </g>
                    </g>
                </g>
            </g>
        </g>
    </g>
</svg>