<?xml version="1.0" encoding="UTF-8"?>
<svg width="160px" height="160px" viewBox="0 0 160 160" version="1.1" xmlns="http://www.w3.org/2000/svg" xmlns:xlink="http://www.w3.org/1999/xlink">
    <!-- Generator: Sketch 51.3 (57544) - http://www.bohemiancoding.com/sketch -->
    <title>Group 8</title>
    <desc>Created with Sketch.</desc>
    <defs></defs>
    <g id="Dashboard" stroke="none" stroke-width="1" fill="none" fill-rule="evenodd">
        <g id="Artboard" transform="translate(-269.000000, -216.000000)">
            <g id="Group-8" transform="translate(269.000000, 216.000000)">
                <rect id="Rectangle-2" fill="#FAFAFA" x="0" y="0" width="160" height="160" rx="6"></rect>
                <path d="M31.1367188,117.117188 L29.4199219,117.117188 L25.2070312,110.291016 L25.1601562,110.291016 L25.1894531,110.671875 C25.2441409,111.398441 25.2714844,112.062497 25.2714844,112.664062 L25.2714844,117.117188 L24,117.117188 L24,108.550781 L25.6992188,108.550781 L29.9003906,115.341797 L29.9355469,115.341797 C29.9277343,115.251953 29.9121095,114.924808 29.8886719,114.360352 C29.8652343,113.795896 29.8535156,113.35547 29.8535156,113.039062 L29.8535156,108.550781 L31.1367188,108.550781 L31.1367188,117.117188 Z M39,113.865234 C39,114.923833 38.7285183,115.749997 38.1855469,116.34375 C37.6425754,116.937503 36.8867236,117.234375 35.9179688,117.234375 C35.312497,117.234375 34.7773461,117.097658 34.3125,116.824219 C33.8476539,116.55078 33.4902356,116.158206 33.2402344,115.646484 C32.9902331,115.134763 32.8652344,114.541019 32.8652344,113.865234 C32.8652344,112.814448 33.1347629,111.994144 33.6738281,111.404297 C34.2128933,110.81445 34.9726513,110.519531 35.953125,110.519531 C36.8906297,110.519531 37.6328098,110.821286 38.1796875,111.424805 C38.7265652,112.028323 39,112.841792 39,113.865234 Z M34.2832031,113.865234 C34.2832031,115.361336 34.835932,116.109375 35.9414062,116.109375 C37.0351617,116.109375 37.5820312,115.361336 37.5820312,113.865234 C37.5820312,112.384758 37.0312555,111.644531 35.9296875,111.644531 C35.3515596,111.644531 34.9326185,111.835936 34.6728516,112.21875 C34.4130846,112.601564 34.2832031,113.150387 34.2832031,113.865234 Z M43.8457031,117.117188 L43.8457031,108.550781 L45.2460938,108.550781 L45.2460938,117.117188 L43.8457031,117.117188 Z M52.8222656,117.117188 L51.4394531,117.117188 L51.4394531,113.121094 C51.4394531,112.624998 51.3457041,112.254884 51.1582031,112.010742 C50.9707022,111.7666 50.6777364,111.644531 50.2792969,111.644531 C49.7480442,111.644531 49.3583997,111.817381 49.1103516,112.163086 C48.8623034,112.508791 48.7382812,113.08398 48.7382812,113.888672 L48.7382812,117.117188 L47.3613281,117.117188 L47.3613281,110.636719 L48.4394531,110.636719 L48.6328125,111.486328 L48.703125,111.486328 C48.8828134,111.177733 49.143553,110.939454 49.4853516,110.771484 C49.8271501,110.603515 50.2031229,110.519531 50.6132812,110.519531 C51.60938,110.519531 52.2695296,110.859372 52.59375,111.539062 L52.6875,111.539062 C52.8789072,111.218748 53.1484358,110.968751 53.4960938,110.789062 C53.8437517,110.609374 54.2421853,110.519531 54.6914062,110.519531 C55.4648476,110.519531 56.0283185,110.714842 56.3818359,111.105469 C56.7353533,111.496096 56.9121094,112.091793 56.9121094,112.892578 L56.9121094,117.117188 L55.5351562,117.117188 L55.5351562,113.121094 C55.5351562,112.624998 55.4404306,112.254884 55.2509766,112.010742 C55.0615225,111.7666 54.7675801,111.644531 54.3691406,111.644531 C53.8339817,111.644531 53.4423841,111.811522 53.1943359,112.145508 C52.9462878,112.479494 52.8222656,112.992184 52.8222656,113.683594 L52.8222656,117.117188 Z M62.8886719,117.117188 L62.6132812,116.214844 L62.5664062,116.214844 C62.2539047,116.609377 61.9394547,116.877929 61.6230469,117.020508 C61.306639,117.163087 60.9003931,117.234375 60.4042969,117.234375 C59.7675749,117.234375 59.2705096,117.062502 58.9130859,116.71875 C58.5556623,116.374998 58.3769531,115.888675 58.3769531,115.259766 C58.3769531,114.591794 58.6249975,114.087892 59.1210938,113.748047 C59.61719,113.408201 60.3730418,113.222656 61.3886719,113.191406 L62.5078125,113.15625 L62.5078125,112.810547 C62.5078125,112.396482 62.4111338,112.086915 62.2177734,111.881836 C62.0244131,111.676757 61.7246114,111.574219 61.3183594,111.574219 C60.9863265,111.574219 60.6679703,111.623046 60.3632812,111.720703 C60.0585922,111.81836 59.7656264,111.933593 59.484375,112.066406 L59.0390625,111.082031 C59.3906268,110.898437 59.7753885,110.75879 60.1933594,110.663086 C60.6113302,110.567382 61.0058575,110.519531 61.3769531,110.519531 C62.201176,110.519531 62.8232401,110.699217 63.2431641,111.058594 C63.663088,111.417971 63.8730469,111.982418 63.8730469,112.751953 L63.8730469,117.117188 L62.8886719,117.117188 Z M60.8378906,116.179688 C61.3378931,116.179688 61.7392563,116.04004 62.0419922,115.760742 C62.3447281,115.481444 62.4960938,115.089846 62.4960938,114.585938 L62.4960938,114.023438 L61.6640625,114.058594 C61.0156218,114.082031 60.5439468,114.190429 60.2490234,114.383789 C59.9541001,114.577149 59.8066406,114.873045 59.8066406,115.271484 C59.8066406,115.560548 59.8925773,115.784179 60.0644531,115.942383 C60.236329,116.100587 60.4941389,116.179688 60.8378906,116.179688 Z M71.2675781,110.636719 L71.2675781,111.392578 L70.1601562,111.597656 C70.2617193,111.734376 70.3457028,111.902343 70.4121094,112.101562 C70.478516,112.300782 70.5117188,112.511718 70.5117188,112.734375 C70.5117188,113.402347 70.2812523,113.927732 69.8203125,114.310547 C69.3593727,114.693361 68.7246134,114.884766 67.9160156,114.884766 C67.7089833,114.884766 67.5214852,114.869141 67.3535156,114.837891 C67.0566391,115.021485 66.9082031,115.236327 66.9082031,115.482422 C66.9082031,115.63086 66.9775384,115.742187 67.1162109,115.816406 C67.2548835,115.890625 67.5097638,115.927734 67.8808594,115.927734 L69.0117188,115.927734 C69.7265661,115.927734 70.2695294,116.080077 70.640625,116.384766 C71.0117206,116.689455 71.1972656,117.128903 71.1972656,117.703125 C71.1972656,118.437504 70.8945343,119.003904 70.2890625,119.402344 C69.6835907,119.800783 68.8085995,120 67.6640625,120 C66.7812456,120 66.1074242,119.843752 65.6425781,119.53125 C65.1777321,119.218748 64.9453125,118.77344 64.9453125,118.195312 C64.9453125,117.796873 65.0712878,117.461915 65.3232422,117.19043 C65.5751966,116.918944 65.9277321,116.730469 66.3808594,116.625 C66.1972647,116.546875 66.045899,116.420899 65.9267578,116.24707 C65.8076166,116.073241 65.7480469,115.890626 65.7480469,115.699219 C65.7480469,115.45703 65.8164056,115.251954 65.953125,115.083984 C66.0898444,114.916015 66.2929674,114.750001 66.5625,114.585938 C66.2265608,114.441406 65.9541026,114.206056 65.7451172,113.879883 C65.5361318,113.553709 65.4316406,113.171877 65.4316406,112.734375 C65.4316406,112.031246 65.6533181,111.48633 66.0966797,111.099609 C66.5400413,110.712889 67.1718709,110.519531 67.9921875,110.519531 C68.1757822,110.519531 68.3681631,110.532226 68.5693359,110.557617 C68.7705088,110.583008 68.9218745,110.609375 69.0234375,110.636719 L71.2675781,110.636719 Z M66.1757812,118.125 C66.1757812,118.421876 66.309569,118.65039 66.5771484,118.810547 C66.8447279,118.970704 67.2207007,119.050781 67.7050781,119.050781 C68.4550819,119.050781 69.01367,118.94336 69.3808594,118.728516 C69.7480487,118.513671 69.9316406,118.228517 69.9316406,117.873047 C69.9316406,117.591795 69.8310557,117.391602 69.6298828,117.272461 C69.4287099,117.15332 69.0546902,117.09375 68.5078125,117.09375 L67.4648438,117.09375 C67.0703105,117.09375 66.7568371,117.186523 66.5244141,117.37207 C66.291991,117.557618 66.1757812,117.808592 66.1757812,118.125 Z M66.7675781,112.734375 C66.7675781,113.140627 66.8720693,113.453124 67.0810547,113.671875 C67.2900401,113.890626 67.5898418,114 67.9804688,114 C68.7773477,114 69.1757812,113.574223 69.1757812,112.722656 C69.1757812,112.300779 69.0771494,111.975587 68.8798828,111.74707 C68.6826162,111.518554 68.3828145,111.404297 67.9804688,111.404297 C67.5820293,111.404297 67.2802745,111.517577 67.0751953,111.744141 C66.8701162,111.970704 66.7675781,112.300779 66.7675781,112.734375 Z M75.2988281,117.234375 C74.2910106,117.234375 73.5029325,116.940433 72.9345703,116.352539 C72.3662081,115.764645 72.0820312,114.955083 72.0820312,113.923828 C72.0820312,112.865229 72.3457005,112.033206 72.8730469,111.427734 C73.4003933,110.822263 74.1249954,110.519531 75.046875,110.519531 C75.902348,110.519531 76.5781225,110.779294 77.0742188,111.298828 C77.570315,111.818362 77.8183594,112.533199 77.8183594,113.443359 L77.8183594,114.1875 L73.5,114.1875 C73.5195313,114.816409 73.6894515,115.299803 74.0097656,115.637695 C74.3300797,115.975588 74.7812471,116.144531 75.3632812,116.144531 C75.7460957,116.144531 76.1025374,116.108399 76.4326172,116.036133 C76.762697,115.963867 77.1171856,115.843751 77.4960938,115.675781 L77.4960938,116.794922 C77.1601546,116.955079 76.8203142,117.068359 76.4765625,117.134766 C76.1328108,117.201172 75.7402366,117.234375 75.2988281,117.234375 Z M75.046875,111.5625 C74.6093728,111.5625 74.2587904,111.70117 73.9951172,111.978516 C73.731444,112.255861 73.574219,112.660154 73.5234375,113.191406 L76.4648438,113.191406 C76.4570312,112.656247 76.3281262,112.250978 76.078125,111.975586 C75.8281238,111.700194 75.4843772,111.5625 75.046875,111.5625 Z M87.9609375,117.117188 L87.1054688,114.738281 L83.8300781,114.738281 L82.9921875,117.117188 L81.515625,117.117188 L84.7207031,108.515625 L86.2441406,108.515625 L89.4492188,117.117188 L87.9609375,117.117188 Z M86.7363281,113.53125 L85.9335938,111.199219 C85.8749997,111.042968 85.7939458,110.796877 85.6904297,110.460938 C85.5869135,110.124998 85.5156252,109.878907 85.4765625,109.722656 C85.3710932,110.203127 85.2167979,110.728513 85.0136719,111.298828 L84.2402344,113.53125 L86.7363281,113.53125 Z M91.9101562,117.117188 L89.4492188,110.636719 L90.9023438,110.636719 L92.2207031,114.404297 C92.4472668,115.037113 92.5839841,115.548826 92.6308594,115.939453 L92.6777344,115.939453 C92.7128908,115.658202 92.8496082,115.146488 93.0878906,114.404297 L94.40625,110.636719 L95.8710938,110.636719 L93.3984375,117.117188 L91.9101562,117.117188 Z M100.910156,117.117188 L100.634766,116.214844 L100.587891,116.214844 C100.275389,116.609377 99.9609391,116.877929 99.6445312,117.020508 C99.3281234,117.163087 98.9218775,117.234375 98.4257812,117.234375 C97.7890593,117.234375 97.291994,117.062502 96.9345703,116.71875 C96.5771467,116.374998 96.3984375,115.888675 96.3984375,115.259766 C96.3984375,114.591794 96.6464819,114.087892 97.1425781,113.748047 C97.6386744,113.408201 98.3945262,113.222656 99.4101562,113.191406 L100.529297,113.15625 L100.529297,112.810547 C100.529297,112.396482 100.432618,112.086915 100.239258,111.881836 C100.045897,111.676757 99.7460958,111.574219 99.3398438,111.574219 C99.0078108,111.574219 98.6894546,111.623046 98.3847656,111.720703 C98.0800766,111.81836 97.7871108,111.933593 97.5058594,112.066406 L97.0605469,111.082031 C97.4121111,110.898437 97.7968729,110.75879 98.2148438,110.663086 C98.6328146,110.567382 99.0273419,110.519531 99.3984375,110.519531 C100.22266,110.519531 100.844724,110.699217 101.264648,111.058594 C101.684572,111.417971 101.894531,111.982418 101.894531,112.751953 L101.894531,117.117188 L100.910156,117.117188 Z M98.859375,116.179688 C99.3593775,116.179688 99.7607407,116.04004 100.063477,115.760742 C100.366212,115.481444 100.517578,115.089846 100.517578,114.585938 L100.517578,114.023438 L99.6855469,114.058594 C99.0371061,114.082031 98.5654312,114.190429 98.2705078,114.383789 C97.9755845,114.577149 97.828125,114.873045 97.828125,115.271484 C97.828125,115.560548 97.9140616,115.784179 98.0859375,115.942383 C98.2578134,116.100587 98.5156233,116.179688 98.859375,116.179688 Z M105.193359,117.117188 L103.816406,117.117188 L103.816406,110.636719 L105.193359,110.636719 L105.193359,117.117188 Z M103.734375,108.919922 C103.734375,108.673827 103.801757,108.484376 103.936523,108.351562 C104.07129,108.218749 104.263671,108.152344 104.513672,108.152344 C104.755861,108.152344 104.944335,108.218749 105.079102,108.351562 C105.213868,108.484376 105.28125,108.673827 105.28125,108.919922 C105.28125,109.154298 105.213868,109.338867 105.079102,109.473633 C104.944335,109.608399 104.755861,109.675781 104.513672,109.675781 C104.263671,109.675781 104.07129,109.608399 103.936523,109.473633 C103.801757,109.338867 103.734375,109.154298 103.734375,108.919922 Z M108.539062,117.117188 L107.162109,117.117188 L107.162109,108 L108.539062,108 L108.539062,117.117188 Z M114.5625,117.117188 L114.287109,116.214844 L114.240234,116.214844 C113.927733,116.609377 113.613283,116.877929 113.296875,117.020508 C112.980467,117.163087 112.574221,117.234375 112.078125,117.234375 C111.441403,117.234375 110.944338,117.062502 110.586914,116.71875 C110.22949,116.374998 110.050781,115.888675 110.050781,115.259766 C110.050781,114.591794 110.298826,114.087892 110.794922,113.748047 C111.291018,113.408201 112.04687,113.222656 113.0625,113.191406 L114.181641,113.15625 L114.181641,112.810547 C114.181641,112.396482 114.084962,112.086915 113.891602,111.881836 C113.698241,111.676757 113.39844,111.574219 112.992188,111.574219 C112.660155,111.574219 112.341798,111.623046 112.037109,111.720703 C111.73242,111.81836 111.439455,111.933593 111.158203,112.066406 L110.712891,111.082031 C111.064455,110.898437 111.449217,110.75879 111.867188,110.663086 C112.285158,110.567382 112.679686,110.519531 113.050781,110.519531 C113.875004,110.519531 114.497068,110.699217 114.916992,111.058594 C115.336916,111.417971 115.546875,111.982418 115.546875,112.751953 L115.546875,117.117188 L114.5625,117.117188 Z M112.511719,116.179688 C113.011721,116.179688 113.413084,116.04004 113.71582,115.760742 C114.018556,115.481444 114.169922,115.089846 114.169922,114.585938 L114.169922,114.023438 L113.337891,114.058594 C112.68945,114.082031 112.217775,114.190429 111.922852,114.383789 C111.627928,114.577149 111.480469,114.873045 111.480469,115.271484 C111.480469,115.560548 111.566405,115.784179 111.738281,115.942383 C111.910157,116.100587 112.167967,116.179688 112.511719,116.179688 Z M120.779297,110.519531 C121.587895,110.519531 122.217771,110.812497 122.668945,111.398438 C123.120119,111.984378 123.345703,112.806635 123.345703,113.865234 C123.345703,114.92774 123.11719,115.75488 122.660156,116.34668 C122.203123,116.93848 121.568363,117.234375 120.755859,117.234375 C119.935543,117.234375 119.29883,116.939456 118.845703,116.349609 L118.751953,116.349609 L118.5,117.117188 L117.46875,117.117188 L117.46875,108 L118.845703,108 L118.845703,110.167969 C118.845703,110.328126 118.837891,110.566405 118.822266,110.882812 C118.806641,111.19922 118.794922,111.40039 118.787109,111.486328 L118.845703,111.486328 C119.283205,110.841794 119.92773,110.519531 120.779297,110.519531 Z M120.421875,111.644531 C119.867185,111.644531 119.467775,111.807616 119.223633,112.133789 C118.979491,112.459963 118.853516,113.005856 118.845703,113.771484 L118.845703,113.865234 C118.845703,114.654301 118.970702,115.225584 119.220703,115.579102 C119.470704,115.932619 119.878903,116.109375 120.445312,116.109375 C120.933596,116.109375 121.30371,115.916018 121.555664,115.529297 C121.807618,115.142576 121.933594,114.583988 121.933594,113.853516 C121.933594,112.380852 121.429693,111.644531 120.421875,111.644531 Z M126.322266,117.117188 L124.945312,117.117188 L124.945312,108 L126.322266,108 L126.322266,117.117188 Z M131.121094,117.234375 C130.113276,117.234375 129.325198,116.940433 128.756836,116.352539 C128.188474,115.764645 127.904297,114.955083 127.904297,113.923828 C127.904297,112.865229 128.167966,112.033206 128.695312,111.427734 C129.222659,110.822263 129.947261,110.519531 130.869141,110.519531 C131.724614,110.519531 132.400388,110.779294 132.896484,111.298828 C133.392581,111.818362 133.640625,112.533199 133.640625,113.443359 L133.640625,114.1875 L129.322266,114.1875 C129.341797,114.816409 129.511717,115.299803 129.832031,115.637695 C130.152345,115.975588 130.603513,116.144531 131.185547,116.144531 C131.568361,116.144531 131.924803,116.108399 132.254883,116.036133 C132.584963,115.963867 132.939451,115.843751 133.318359,115.675781 L133.318359,116.794922 C132.98242,116.955079 132.64258,117.068359 132.298828,117.134766 C131.955076,117.201172 131.562502,117.234375 131.121094,117.234375 Z M130.869141,111.5625 C130.431638,111.5625 130.081056,111.70117 129.817383,111.978516 C129.55371,112.255861 129.396485,112.660154 129.345703,113.191406 L132.287109,113.191406 C132.279297,112.656247 132.150392,112.250978 131.900391,111.975586 C131.650389,111.700194 131.306643,111.5625 130.869141,111.5625 Z" id="No-Image-Available" fill="#D8D8D8"></path>
                <g id="Group" transform="translate(52.000000, 43.000000)">
                    <circle id="Oval" fill="#D8D8D8" cx="27.5" cy="27.5" r="27.5"></circle>
                    <path d="M28.5,26.75 L40.75,26.75 C41.5784271,26.75 42.25,27.4215729 42.25,28.25 C42.25,29.0784271 41.5784271,29.75 40.75,29.75 L28.5,29.75 L28.5,42 C28.5,42.8284271 27.8284271,43.5 27,43.5 C26.1715729,43.5 25.5,42.8284271 25.5,42 L25.5,29.75 L13.25,29.75 C12.4215729,29.75 11.75,29.0784271 11.75,28.25 C11.75,27.4215729 12.4215729,26.75 13.25,26.75 L25.5,26.75 L25.5,14.5 C25.5,13.6715729 26.1715729,13 27,13 C27.8284271,13 28.5,13.6715729 28.5,14.5 L28.5,26.75 Z" id="Combined-Shape" fill="#FFFFFF" fill-rule="nonzero"></path>
                </g>
            </g>
        </g>
    </g>
</svg>